// Validating benchmarks:
// ***** BenchmarkRunner: Start   *****
// ***** Found 3 benchmark(s) in total *****
// ***** Building 1 exe(s) in Parallel: Start   *****
// start dotnet  restore /p:UseSharedCompilation=false /p:BuildInParallel=false /m:1 /p:Deterministic=true /p:Optimize=true in C:\Users\bukir\Desktop\4семестр\mapz\Lab2\MAPZ_22\bin\Release\net6.0\16bb7f45-0da3-4a70-b405-e6e0ad1b52b0
// command took 1.16 sec and exited with 0
// start dotnet  build -c Release --no-restore /p:UseSharedCompilation=false /p:BuildInParallel=false /m:1 /p:Deterministic=true /p:Optimize=true in C:\Users\bukir\Desktop\4семестр\mapz\Lab2\MAPZ_22\bin\Release\net6.0\16bb7f45-0da3-4a70-b405-e6e0ad1b52b0
// command took 11.88 sec and exited with 1
// start dotnet  build -c Release --no-restore --no-dependencies /p:UseSharedCompilation=false /p:BuildInParallel=false /m:1 /p:Deterministic=true /p:Optimize=true in C:\Users\bukir\Desktop\4семестр\mapz\Lab2\MAPZ_22\bin\Release\net6.0\16bb7f45-0da3-4a70-b405-e6e0ad1b52b0
// command took 2.16 sec and exited with 0
// ***** Done, took 00:00:15 (15.27 sec)   *****
// Found 3 benchmarks:
//   PolymorphismBenchmark.VirtualMetod: DefaultJob
//   PolymorphismBenchmark.IntefaceMetod: DefaultJob
//   PolymorphismBenchmark.ReflectionMethod: DefaultJob

Setup power plan (GUID: 8c5e7fda-e8bf-4a96-9a85-a6e23a8c635c FriendlyName: Висока продуктивність)
// **************************
// Benchmark: PolymorphismBenchmark.VirtualMetod: DefaultJob
// *** Execute ***
// Launch: 1 / 1
// Execute: dotnet 16bb7f45-0da3-4a70-b405-e6e0ad1b52b0.dll --anonymousPipes 1308 1304 --benchmarkName PolymorphismBenchmark.VirtualMetod --job Default --benchmarkId 0 in C:\Users\bukir\Desktop\4семестр\mapz\Lab2\MAPZ_22\bin\Release\net6.0\16bb7f45-0da3-4a70-b405-e6e0ad1b52b0\bin\Release\net6.0
// BeforeAnythingElse

// Benchmark Process Environment Information:
// BenchmarkDotNet v0.13.12
// Runtime=.NET 6.0.16 (6.0.1623.17311), X64 RyuJIT AVX2
// GC=Concurrent Workstation
// HardwareIntrinsics=AVX2,AES,BMI1,BMI2,FMA,LZCNT,PCLMUL,POPCNT VectorSize=256
// Job: DefaultJob

OverheadJitting  1: 1 op, 185000.00 ns, 185.0000 us/op
WorkloadJitting  1: 1 op, 13978700.00 ns, 13.9787 ms/op

OverheadJitting  2: 16 op, 190400.00 ns, 11.9000 us/op
WorkloadJitting  2: 16 op, 171974500.00 ns, 10.7484 ms/op

WorkloadPilot    1: 16 op, 163214700.00 ns, 10.2009 ms/op
WorkloadPilot    2: 32 op, 319763300.00 ns, 9.9926 ms/op
WorkloadPilot    3: 64 op, 646626500.00 ns, 10.1035 ms/op

OverheadWarmup   1: 64 op, 1600.00 ns, 25.0000 ns/op
OverheadWarmup   2: 64 op, 600.00 ns, 9.3750 ns/op
OverheadWarmup   3: 64 op, 600.00 ns, 9.3750 ns/op
OverheadWarmup   4: 64 op, 600.00 ns, 9.3750 ns/op
OverheadWarmup   5: 64 op, 500.00 ns, 7.8125 ns/op
OverheadWarmup   6: 64 op, 500.00 ns, 7.8125 ns/op

OverheadActual   1: 64 op, 500.00 ns, 7.8125 ns/op
OverheadActual   2: 64 op, 600.00 ns, 9.3750 ns/op
OverheadActual   3: 64 op, 600.00 ns, 9.3750 ns/op
OverheadActual   4: 64 op, 500.00 ns, 7.8125 ns/op
OverheadActual   5: 64 op, 600.00 ns, 9.3750 ns/op
OverheadActual   6: 64 op, 600.00 ns, 9.3750 ns/op
OverheadActual   7: 64 op, 400.00 ns, 6.2500 ns/op
OverheadActual   8: 64 op, 500.00 ns, 7.8125 ns/op
OverheadActual   9: 64 op, 500.00 ns, 7.8125 ns/op
OverheadActual  10: 64 op, 600.00 ns, 9.3750 ns/op
OverheadActual  11: 64 op, 300.00 ns, 4.6875 ns/op
OverheadActual  12: 64 op, 400.00 ns, 6.2500 ns/op
OverheadActual  13: 64 op, 1100.00 ns, 17.1875 ns/op
OverheadActual  14: 64 op, 500.00 ns, 7.8125 ns/op
OverheadActual  15: 64 op, 400.00 ns, 6.2500 ns/op
OverheadActual  16: 64 op, 600.00 ns, 9.3750 ns/op
OverheadActual  17: 64 op, 500.00 ns, 7.8125 ns/op
OverheadActual  18: 64 op, 500.00 ns, 7.8125 ns/op
OverheadActual  19: 64 op, 500.00 ns, 7.8125 ns/op
OverheadActual  20: 64 op, 900.00 ns, 14.0625 ns/op

WorkloadWarmup   1: 64 op, 710587400.00 ns, 11.1029 ms/op
WorkloadWarmup   2: 64 op, 650076200.00 ns, 10.1574 ms/op
WorkloadWarmup   3: 64 op, 642431100.00 ns, 10.0380 ms/op
WorkloadWarmup   4: 64 op, 673261500.00 ns, 10.5197 ms/op
WorkloadWarmup   5: 64 op, 644690600.00 ns, 10.0733 ms/op
WorkloadWarmup   6: 64 op, 632500100.00 ns, 9.8828 ms/op
WorkloadWarmup   7: 64 op, 634747000.00 ns, 9.9179 ms/op
WorkloadWarmup   8: 64 op, 649747200.00 ns, 10.1523 ms/op
WorkloadWarmup   9: 64 op, 648453500.00 ns, 10.1321 ms/op

// BeforeActualRun
WorkloadActual   1: 64 op, 657648400.00 ns, 10.2758 ms/op
WorkloadActual   2: 64 op, 646325000.00 ns, 10.0988 ms/op
WorkloadActual   3: 64 op, 636283100.00 ns, 9.9419 ms/op
WorkloadActual   4: 64 op, 643461600.00 ns, 10.0541 ms/op
WorkloadActual   5: 64 op, 637819500.00 ns, 9.9659 ms/op
WorkloadActual   6: 64 op, 639062500.00 ns, 9.9854 ms/op
WorkloadActual   7: 64 op, 639540800.00 ns, 9.9928 ms/op
WorkloadActual   8: 64 op, 652088800.00 ns, 10.1889 ms/op
WorkloadActual   9: 64 op, 663317500.00 ns, 10.3643 ms/op
WorkloadActual  10: 64 op, 639511900.00 ns, 9.9924 ms/op
WorkloadActual  11: 64 op, 645320400.00 ns, 10.0831 ms/op
WorkloadActual  12: 64 op, 646310700.00 ns, 10.0986 ms/op
WorkloadActual  13: 64 op, 639773900.00 ns, 9.9965 ms/op
WorkloadActual  14: 64 op, 648585900.00 ns, 10.1342 ms/op
WorkloadActual  15: 64 op, 646992700.00 ns, 10.1093 ms/op

// AfterActualRun
WorkloadResult   1: 64 op, 657647900.00 ns, 10.2757 ms/op
WorkloadResult   2: 64 op, 646324500.00 ns, 10.0988 ms/op
WorkloadResult   3: 64 op, 636282600.00 ns, 9.9419 ms/op
WorkloadResult   4: 64 op, 643461100.00 ns, 10.0541 ms/op
WorkloadResult   5: 64 op, 637819000.00 ns, 9.9659 ms/op
WorkloadResult   6: 64 op, 639062000.00 ns, 9.9853 ms/op
WorkloadResult   7: 64 op, 639540300.00 ns, 9.9928 ms/op
WorkloadResult   8: 64 op, 652088300.00 ns, 10.1889 ms/op
WorkloadResult   9: 64 op, 639511400.00 ns, 9.9924 ms/op
WorkloadResult  10: 64 op, 645319900.00 ns, 10.0831 ms/op
WorkloadResult  11: 64 op, 646310200.00 ns, 10.0986 ms/op
WorkloadResult  12: 64 op, 639773400.00 ns, 9.9965 ms/op
WorkloadResult  13: 64 op, 648585400.00 ns, 10.1341 ms/op
WorkloadResult  14: 64 op, 646992200.00 ns, 10.1093 ms/op

// AfterAll
// Benchmark Process 6948 has exited with code 0.

Mean = 10.066 ms, StdErr = 0.025 ms (0.25%), N = 14, StdDev = 0.094 ms
Min = 9.942 ms, Q1 = 9.992 ms, Median = 10.069 ms, Q3 = 10.107 ms, Max = 10.276 ms
IQR = 0.114 ms, LowerFence = 9.821 ms, UpperFence = 10.278 ms
ConfidenceInterval = [9.959 ms; 10.172 ms] (CI 99.9%), Margin = 0.106 ms (1.06% of Mean)
Skewness = 0.61, Kurtosis = 2.4, MValue = 2

// ** Remained 2 (66,7%) benchmark(s) to run. Estimated finish 2024-03-28 15:07 (0h 0m from now) **
Setup power plan (GUID: 8c5e7fda-e8bf-4a96-9a85-a6e23a8c635c FriendlyName: Висока продуктивність)
// **************************
// Benchmark: PolymorphismBenchmark.IntefaceMetod: DefaultJob
// *** Execute ***
// Launch: 1 / 1
// Execute: dotnet 16bb7f45-0da3-4a70-b405-e6e0ad1b52b0.dll --anonymousPipes 1280 1244 --benchmarkName PolymorphismBenchmark.IntefaceMetod --job Default --benchmarkId 1 in C:\Users\bukir\Desktop\4семестр\mapz\Lab2\MAPZ_22\bin\Release\net6.0\16bb7f45-0da3-4a70-b405-e6e0ad1b52b0\bin\Release\net6.0
// BeforeAnythingElse

// Benchmark Process Environment Information:
// BenchmarkDotNet v0.13.12
// Runtime=.NET 6.0.16 (6.0.1623.17311), X64 RyuJIT AVX2
// GC=Concurrent Workstation
// HardwareIntrinsics=AVX2,AES,BMI1,BMI2,FMA,LZCNT,PCLMUL,POPCNT VectorSize=256
// Job: DefaultJob

OverheadJitting  1: 1 op, 428000.00 ns, 428.0000 us/op
WorkloadJitting  1: 1 op, 17643000.00 ns, 17.6430 ms/op

OverheadJitting  2: 16 op, 170300.00 ns, 10.6438 us/op
WorkloadJitting  2: 16 op, 284320700.00 ns, 17.7700 ms/op

WorkloadPilot    1: 16 op, 296335100.00 ns, 18.5209 ms/op
WorkloadPilot    2: 32 op, 551147200.00 ns, 17.2233 ms/op

OverheadWarmup   1: 32 op, 2600.00 ns, 81.2500 ns/op
OverheadWarmup   2: 32 op, 500.00 ns, 15.6250 ns/op
OverheadWarmup   3: 32 op, 400.00 ns, 12.5000 ns/op
OverheadWarmup   4: 32 op, 600.00 ns, 18.7500 ns/op
OverheadWarmup   5: 32 op, 500.00 ns, 15.6250 ns/op
OverheadWarmup   6: 32 op, 600.00 ns, 18.7500 ns/op
OverheadWarmup   7: 32 op, 500.00 ns, 15.6250 ns/op

OverheadActual   1: 32 op, 500.00 ns, 15.6250 ns/op
OverheadActual   2: 32 op, 500.00 ns, 15.6250 ns/op
OverheadActual   3: 32 op, 600.00 ns, 18.7500 ns/op
OverheadActual   4: 32 op, 500.00 ns, 15.6250 ns/op
OverheadActual   5: 32 op, 600.00 ns, 18.7500 ns/op
OverheadActual   6: 32 op, 500.00 ns, 15.6250 ns/op
OverheadActual   7: 32 op, 600.00 ns, 18.7500 ns/op
OverheadActual   8: 32 op, 400.00 ns, 12.5000 ns/op
OverheadActual   9: 32 op, 500.00 ns, 15.6250 ns/op
OverheadActual  10: 32 op, 500.00 ns, 15.6250 ns/op
OverheadActual  11: 32 op, 500.00 ns, 15.6250 ns/op
OverheadActual  12: 32 op, 500.00 ns, 15.6250 ns/op
OverheadActual  13: 32 op, 400.00 ns, 12.5000 ns/op
OverheadActual  14: 32 op, 500.00 ns, 15.6250 ns/op
OverheadActual  15: 32 op, 400.00 ns, 12.5000 ns/op
OverheadActual  16: 32 op, 300.00 ns, 9.3750 ns/op
OverheadActual  17: 32 op, 500.00 ns, 15.6250 ns/op
OverheadActual  18: 32 op, 400.00 ns, 12.5000 ns/op
OverheadActual  19: 32 op, 400.00 ns, 12.5000 ns/op
OverheadActual  20: 32 op, 1100.00 ns, 34.3750 ns/op

WorkloadWarmup   1: 32 op, 561945000.00 ns, 17.5608 ms/op
WorkloadWarmup   2: 32 op, 557981400.00 ns, 17.4369 ms/op
WorkloadWarmup   3: 32 op, 561788300.00 ns, 17.5559 ms/op
WorkloadWarmup   4: 32 op, 595027000.00 ns, 18.5946 ms/op
WorkloadWarmup   5: 32 op, 560066500.00 ns, 17.5021 ms/op
WorkloadWarmup   6: 32 op, 561269200.00 ns, 17.5397 ms/op
WorkloadWarmup   7: 32 op, 576127800.00 ns, 18.0040 ms/op
WorkloadWarmup   8: 32 op, 560999400.00 ns, 17.5312 ms/op

// BeforeActualRun
WorkloadActual   1: 32 op, 551208200.00 ns, 17.2253 ms/op
WorkloadActual   2: 32 op, 556247800.00 ns, 17.3827 ms/op
WorkloadActual   3: 32 op, 571710300.00 ns, 17.8659 ms/op
WorkloadActual   4: 32 op, 572780700.00 ns, 17.8994 ms/op
WorkloadActual   5: 32 op, 558865700.00 ns, 17.4646 ms/op
WorkloadActual   6: 32 op, 550260100.00 ns, 17.1956 ms/op
WorkloadActual   7: 32 op, 546594200.00 ns, 17.0811 ms/op
WorkloadActual   8: 32 op, 550149600.00 ns, 17.1922 ms/op
WorkloadActual   9: 32 op, 544436600.00 ns, 17.0136 ms/op
WorkloadActual  10: 32 op, 552182400.00 ns, 17.2557 ms/op
WorkloadActual  11: 32 op, 554829700.00 ns, 17.3384 ms/op
WorkloadActual  12: 32 op, 548781000.00 ns, 17.1494 ms/op
WorkloadActual  13: 32 op, 571230300.00 ns, 17.8509 ms/op
WorkloadActual  14: 32 op, 551641500.00 ns, 17.2388 ms/op
WorkloadActual  15: 32 op, 561393900.00 ns, 17.5436 ms/op

// AfterActualRun
WorkloadResult   1: 32 op, 551207700.00 ns, 17.2252 ms/op
WorkloadResult   2: 32 op, 556247300.00 ns, 17.3827 ms/op
WorkloadResult   3: 32 op, 571709800.00 ns, 17.8659 ms/op
WorkloadResult   4: 32 op, 572780200.00 ns, 17.8994 ms/op
WorkloadResult   5: 32 op, 558865200.00 ns, 17.4645 ms/op
WorkloadResult   6: 32 op, 550259600.00 ns, 17.1956 ms/op
WorkloadResult   7: 32 op, 546593700.00 ns, 17.0811 ms/op
WorkloadResult   8: 32 op, 550149100.00 ns, 17.1922 ms/op
WorkloadResult   9: 32 op, 544436100.00 ns, 17.0136 ms/op
WorkloadResult  10: 32 op, 552181900.00 ns, 17.2557 ms/op
WorkloadResult  11: 32 op, 554829200.00 ns, 17.3384 ms/op
WorkloadResult  12: 32 op, 548780500.00 ns, 17.1494 ms/op
WorkloadResult  13: 32 op, 571229800.00 ns, 17.8509 ms/op
WorkloadResult  14: 32 op, 551641000.00 ns, 17.2388 ms/op
WorkloadResult  15: 32 op, 561393400.00 ns, 17.5435 ms/op

// AfterAll
// Benchmark Process 18888 has exited with code 0.

Mean = 17.380 ms, StdErr = 0.075 ms (0.43%), N = 15, StdDev = 0.289 ms
Min = 17.014 ms, Q1 = 17.194 ms, Median = 17.256 ms, Q3 = 17.504 ms, Max = 17.899 ms
IQR = 0.310 ms, LowerFence = 16.729 ms, UpperFence = 17.969 ms
ConfidenceInterval = [17.071 ms; 17.689 ms] (CI 99.9%), Margin = 0.309 ms (1.78% of Mean)
Skewness = 0.71, Kurtosis = 2.02, MValue = 2

// ** Remained 1 (33,3%) benchmark(s) to run. Estimated finish 2024-03-28 15:07 (0h 0m from now) **
Setup power plan (GUID: 8c5e7fda-e8bf-4a96-9a85-a6e23a8c635c FriendlyName: Висока продуктивність)
// **************************
// Benchmark: PolymorphismBenchmark.ReflectionMethod: DefaultJob
// *** Execute ***
// Launch: 1 / 1
// Execute: dotnet 16bb7f45-0da3-4a70-b405-e6e0ad1b52b0.dll --anonymousPipes 608 1300 --benchmarkName PolymorphismBenchmark.ReflectionMethod --job Default --benchmarkId 2 in C:\Users\bukir\Desktop\4семестр\mapz\Lab2\MAPZ_22\bin\Release\net6.0\16bb7f45-0da3-4a70-b405-e6e0ad1b52b0\bin\Release\net6.0
// BeforeAnythingElse

// Benchmark Process Environment Information:
// BenchmarkDotNet v0.13.12
// Runtime=.NET 6.0.16 (6.0.1623.17311), X64 RyuJIT AVX2
// GC=Concurrent Workstation
// HardwareIntrinsics=AVX2,AES,BMI1,BMI2,FMA,LZCNT,PCLMUL,POPCNT VectorSize=256
// Job: DefaultJob

OverheadJitting  1: 1 op, 151700.00 ns, 151.7000 us/op
WorkloadJitting  1: 1 op, 677462600.00 ns, 677.4626 ms/op

OverheadJitting  2: 1 op, 400.00 ns, 400.0000 ns/op
WorkloadJitting  2: 1 op, 677117800.00 ns, 677.1178 ms/op

WorkloadWarmup   1: 1 op, 669613600.00 ns, 669.6136 ms/op
WorkloadWarmup   2: 1 op, 640121700.00 ns, 640.1217 ms/op
WorkloadWarmup   3: 1 op, 636045800.00 ns, 636.0458 ms/op
WorkloadWarmup   4: 1 op, 664125400.00 ns, 664.1254 ms/op
WorkloadWarmup   5: 1 op, 665943800.00 ns, 665.9438 ms/op
WorkloadWarmup   6: 1 op, 655165100.00 ns, 655.1651 ms/op
WorkloadWarmup   7: 1 op, 655303300.00 ns, 655.3033 ms/op
WorkloadWarmup   8: 1 op, 652010800.00 ns, 652.0108 ms/op

// BeforeActualRun
WorkloadActual   1: 1 op, 647360600.00 ns, 647.3606 ms/op
WorkloadActual   2: 1 op, 646241800.00 ns, 646.2418 ms/op
WorkloadActual   3: 1 op, 638166900.00 ns, 638.1669 ms/op
WorkloadActual   4: 1 op, 647905200.00 ns, 647.9052 ms/op
WorkloadActual   5: 1 op, 669144900.00 ns, 669.1449 ms/op
WorkloadActual   6: 1 op, 690350200.00 ns, 690.3502 ms/op
WorkloadActual   7: 1 op, 689709600.00 ns, 689.7096 ms/op
WorkloadActual   8: 1 op, 682595900.00 ns, 682.5959 ms/op
WorkloadActual   9: 1 op, 667718900.00 ns, 667.7189 ms/op
WorkloadActual  10: 1 op, 640011800.00 ns, 640.0118 ms/op
WorkloadActual  11: 1 op, 635339500.00 ns, 635.3395 ms/op
WorkloadActual  12: 1 op, 655318800.00 ns, 655.3188 ms/op
WorkloadActual  13: 1 op, 633098300.00 ns, 633.0983 ms/op
WorkloadActual  14: 1 op, 644329100.00 ns, 644.3291 ms/op
WorkloadActual  15: 1 op, 643571200.00 ns, 643.5712 ms/op
WorkloadActual  16: 1 op, 655614400.00 ns, 655.6144 ms/op
WorkloadActual  17: 1 op, 643330500.00 ns, 643.3305 ms/op
WorkloadActual  18: 1 op, 666338400.00 ns, 666.3384 ms/op
WorkloadActual  19: 1 op, 647473400.00 ns, 647.4734 ms/op
WorkloadActual  20: 1 op, 649485500.00 ns, 649.4855 ms/op
WorkloadActual  21: 1 op, 663684900.00 ns, 663.6849 ms/op
WorkloadActual  22: 1 op, 665829200.00 ns, 665.8292 ms/op
WorkloadActual  23: 1 op, 647187700.00 ns, 647.1877 ms/op

// AfterActualRun
WorkloadResult   1: 1 op, 647360600.00 ns, 647.3606 ms/op
WorkloadResult   2: 1 op, 646241800.00 ns, 646.2418 ms/op
WorkloadResult   3: 1 op, 638166900.00 ns, 638.1669 ms/op
WorkloadResult   4: 1 op, 647905200.00 ns, 647.9052 ms/op
WorkloadResult   5: 1 op, 669144900.00 ns, 669.1449 ms/op
WorkloadResult   6: 1 op, 690350200.00 ns, 690.3502 ms/op
WorkloadResult   7: 1 op, 689709600.00 ns, 689.7096 ms/op
WorkloadResult   8: 1 op, 682595900.00 ns, 682.5959 ms/op
WorkloadResult   9: 1 op, 667718900.00 ns, 667.7189 ms/op
WorkloadResult  10: 1 op, 640011800.00 ns, 640.0118 ms/op
WorkloadResult  11: 1 op, 635339500.00 ns, 635.3395 ms/op
WorkloadResult  12: 1 op, 655318800.00 ns, 655.3188 ms/op
WorkloadResult  13: 1 op, 633098300.00 ns, 633.0983 ms/op
WorkloadResult  14: 1 op, 644329100.00 ns, 644.3291 ms/op
WorkloadResult  15: 1 op, 643571200.00 ns, 643.5712 ms/op
WorkloadResult  16: 1 op, 655614400.00 ns, 655.6144 ms/op
WorkloadResult  17: 1 op, 643330500.00 ns, 643.3305 ms/op
WorkloadResult  18: 1 op, 666338400.00 ns, 666.3384 ms/op
WorkloadResult  19: 1 op, 647473400.00 ns, 647.4734 ms/op
WorkloadResult  20: 1 op, 649485500.00 ns, 649.4855 ms/op
WorkloadResult  21: 1 op, 663684900.00 ns, 663.6849 ms/op
WorkloadResult  22: 1 op, 665829200.00 ns, 665.8292 ms/op
WorkloadResult  23: 1 op, 647187700.00 ns, 647.1877 ms/op

// AfterAll
// Benchmark Process 17204 has exited with code 0.

Mean = 655.209 ms, StdErr = 3.440 ms (0.52%), N = 23, StdDev = 16.496 ms
Min = 633.098 ms, Q1 = 643.950 ms, Median = 647.905 ms, Q3 = 666.084 ms, Max = 690.350 ms
IQR = 22.134 ms, LowerFence = 610.750 ms, UpperFence = 699.284 ms
ConfidenceInterval = [642.165 ms; 668.253 ms] (CI 99.9%), Margin = 13.044 ms (1.99% of Mean)
Skewness = 0.76, Kurtosis = 2.47, MValue = 2

// ** Remained 0 (0,0%) benchmark(s) to run. Estimated finish 2024-03-28 15:07 (0h 0m from now) **
Successfully reverted power plan (GUID: 8c5e7fda-e8bf-4a96-9a85-a6e23a8c635c FriendlyName: Висока продуктивність)
// ***** BenchmarkRunner: Finish  *****

// * Export *
  BenchmarkDotNet.Artifacts\results\PolymorphismBenchmark-report.csv
  BenchmarkDotNet.Artifacts\results\PolymorphismBenchmark-report-github.md
  BenchmarkDotNet.Artifacts\results\PolymorphismBenchmark-report.html

// * Detailed results *
PolymorphismBenchmark.VirtualMetod: DefaultJob
Runtime = .NET 6.0.16 (6.0.1623.17311), X64 RyuJIT AVX2; GC = Concurrent Workstation
Mean = 10.066 ms, StdErr = 0.025 ms (0.25%), N = 14, StdDev = 0.094 ms
Min = 9.942 ms, Q1 = 9.992 ms, Median = 10.069 ms, Q3 = 10.107 ms, Max = 10.276 ms
IQR = 0.114 ms, LowerFence = 9.821 ms, UpperFence = 10.278 ms
ConfidenceInterval = [9.959 ms; 10.172 ms] (CI 99.9%), Margin = 0.106 ms (1.06% of Mean)
Skewness = 0.61, Kurtosis = 2.4, MValue = 2
-------------------- Histogram --------------------
[9.891 ms ; 10.327 ms) | @@@@@@@@@@@@@@
---------------------------------------------------

PolymorphismBenchmark.IntefaceMetod: DefaultJob
Runtime = .NET 6.0.16 (6.0.1623.17311), X64 RyuJIT AVX2; GC = Concurrent Workstation
Mean = 17.380 ms, StdErr = 0.075 ms (0.43%), N = 15, StdDev = 0.289 ms
Min = 17.014 ms, Q1 = 17.194 ms, Median = 17.256 ms, Q3 = 17.504 ms, Max = 17.899 ms
IQR = 0.310 ms, LowerFence = 16.729 ms, UpperFence = 17.969 ms
ConfidenceInterval = [17.071 ms; 17.689 ms] (CI 99.9%), Margin = 0.309 ms (1.78% of Mean)
Skewness = 0.71, Kurtosis = 2.02, MValue = 2
-------------------- Histogram --------------------
[16.860 ms ; 17.404 ms) | @@@@@@@@@@
[17.404 ms ; 18.053 ms) | @@@@@
---------------------------------------------------

PolymorphismBenchmark.ReflectionMethod: DefaultJob
Runtime = .NET 6.0.16 (6.0.1623.17311), X64 RyuJIT AVX2; GC = Concurrent Workstation
Mean = 655.209 ms, StdErr = 3.440 ms (0.52%), N = 23, StdDev = 16.496 ms
Min = 633.098 ms, Q1 = 643.950 ms, Median = 647.905 ms, Q3 = 666.084 ms, Max = 690.350 ms
IQR = 22.134 ms, LowerFence = 610.750 ms, UpperFence = 699.284 ms
ConfidenceInterval = [642.165 ms; 668.253 ms] (CI 99.9%), Margin = 13.044 ms (1.99% of Mean)
Skewness = 0.76, Kurtosis = 2.47, MValue = 2
-------------------- Histogram --------------------
[625.485 ms ; 650.026 ms) | @@@@@@@@@@@@@
[650.026 ms ; 669.845 ms) | @@@@@@@
[669.845 ms ; 694.086 ms) | @@@
---------------------------------------------------

// * Summary *

BenchmarkDotNet v0.13.12, Windows 11 (10.0.22631.3296/23H2/2023Update/SunValley3)
11th Gen Intel Core i5-1135G7 2.40GHz, 1 CPU, 8 logical and 4 physical cores
.NET SDK 7.0.302
  [Host]     : .NET 6.0.16 (6.0.1623.17311), X64 RyuJIT AVX2
  DefaultJob : .NET 6.0.16 (6.0.1623.17311), X64 RyuJIT AVX2


| Method           | Mean      | Error     | StdDev    |
|----------------- |----------:|----------:|----------:|
| VirtualMetod     |  10.07 ms |  0.106 ms |  0.094 ms |
| IntefaceMetod    |  17.38 ms |  0.309 ms |  0.289 ms |
| ReflectionMethod | 655.21 ms | 13.044 ms | 16.496 ms |

// * Hints *
Outliers
  PolymorphismBenchmark.VirtualMetod: Default -> 1 outlier  was  removed (10.36 ms)

// * Legends *
  Mean   : Arithmetic mean of all measurements
  Error  : Half of 99.9% confidence interval
  StdDev : Standard deviation of all measurements
  1 ms   : 1 Millisecond (0.001 sec)

// ***** BenchmarkRunner: End *****
Run time: 00:00:53 (53.35 sec), executed benchmarks: 3

Global total time: 00:01:08 (68.84 sec), executed benchmarks: 3
// * Artifacts cleanup *
Artifacts cleanup is finished
